{
	"page": 1,
	"total_results": 7795,
	"total_pages": 390,
	"results": [{
		"vote_count": 961,
		"id": 19404,
		"video": false,
		"vote_average": 9.1,
		"title": "Dilwale Dulhania Le Jayenge",
		"popularity": 46.296268,
		"poster_path": "\/uC6TTUhPpQCmgldGyYveKRAu8JN.jpg",
		"original_language": "hi",
		"original_title": "Dilwale Dulhania Le Jayenge",
		"genre_ids": [35, 18, 10749],
		"backdrop_path": "\/nl79FQ8xWZkhL3rDr1v2RFFR6J0.jpg",
		"adult": false,
		"overview": "Raj is a rich, carefree, happy-go-lucky second generation NRI. Simran is the daughter of Chaudhary Baldev Singh, who in spite of being an NRI is very strict about adherence to Indian values. Simran has left for India to be married to her childhood fiancé. Raj leaves for India with a mission at his hands, to claim his lady love under the noses of her whole family. Thus begins a saga.",
		"release_date": "1995-10-20"
	}, {
		"vote_count": 76,
		"id": 20532,
		"video": false,
		"vote_average": 8.8,
		"title": "Sansho the Bailiff",
		"popularity": 19.963844,
		"poster_path": "\/deBjt3LT3UQHRXiNX1fu28lAtK6.jpg",
		"original_language": "ja",
		"original_title": "山椒大夫",
		"genre_ids": [18],
		"backdrop_path": "\/keaFMNUr1OpdHzPWJ0qeDP8hrO8.jpg",
		"adult": false,
		"overview": "In medieval Japan a compassionate governor is sent into exile. His wife and children try to join him, but are separated, and the children grow up amid suffering and oppression.",
		"release_date": "1954-03-31"
	}, {
		"vote_count": 1545,
		"id": 372058,
		"video": false,
		"vote_average": 8.5,
		"title": "Your Name.",
		"popularity": 56.800677,
		"poster_path": "\/xq1Ugd62d23K2knRUx6xxuALTZB.jpg",
		"original_language": "ja",
		"original_title": "君の名は。",
		"genre_ids": [10749, 16, 18],
		"backdrop_path": "\/6vkhRvsRvWpmaRVyCXaxTkIEb7j.jpg",
		"adult": false,
		"overview": "High schoolers Mitsuha and Taki are complete strangers living separate lives. But one night, they suddenly switch places. Mitsuha wakes up in Taki’s body, and he in hers. This bizarre occurrence continues to happen randomly, and the two must adjust their lives around each other.",
		"release_date": "2016-08-26"
	}, {
		"vote_count": 9043,
		"id": 278,
		"video": false,
		"vote_average": 8.5,
		"title": "The Shawshank Redemption",
		"popularity": 55.681104,
		"poster_path": "\/9O7gLzmreU0nGkIB6K3BsJbzvNv.jpg",
		"original_language": "en",
		"original_title": "The Shawshank Redemption",
		"genre_ids": [18, 80],
		"backdrop_path": "\/xBKGJQsAIeweesB79KC89FpBrVr.jpg",
		"adult": false,
		"overview": "Framed in the 1940s for the double murder of his wife and her lover, upstanding banker Andy Dufresne begins a new life at the Shawshank prison, where he puts his accounting skills to work for an amoral warden. During his long stretch in prison, Dufresne comes to be admired by the other inmates -- including an older prisoner named Red -- for his integrity and unquenchable sense of hope.",
		"release_date": "1994-09-23"
	}, {
		"vote_count": 81,
		"id": 282848,
		"video": false,
		"vote_average": 8.5,
		"title": "Doctor Who: The Time of the Doctor",
		"popularity": 19.784965,
		"poster_path": "\/pEFGnBK6Kd4sqbkz7nMo3s4oyi2.jpg",
		"original_language": "en",
		"original_title": "Doctor Who: The Time of the Doctor",
		"genre_ids": [18, 878],
		"backdrop_path": "\/cdlw13pUZxlN8h6WOcqO1UzJg1l.jpg",
		"adult": false,
		"overview": "Orbiting a quiet backwater planet, the massed forces of the universe's deadliest species gather, drawn to a mysterious message that echoes out to the stars. And amongst them, the Doctor. Rescuing Clara from a family Christmas dinner, the Time Lord and his best friend must learn what this enigmatic signal means for his own fate and that of the universe.",
		"release_date": "2013-12-25"
	}, {
		"vote_count": 6618,
		"id": 238,
		"video": false,
		"vote_average": 8.5,
		"title": "The Godfather",
		"popularity": 81.591659,
		"poster_path": "\/rPdtLWNsZmAtoZl9PK7S2wE3qiS.jpg",
		"original_language": "en",
		"original_title": "The Godfather",
		"genre_ids": [18, 80],
		"backdrop_path": "\/6xKCYgH16UuwEGAyroLU6p8HLIn.jpg",
		"adult": false,
		"overview": "Spanning the years 1945 to 1955, a chronicle of the fictional Italian-American Corleone crime family. When organized crime family patriarch, Vito Corleone barely survives an attempt on his life, his youngest son, Michael steps in to take care of the would-be killers, launching a campaign of bloody revenge.",
		"release_date": "1972-03-14"
	}, {
		"vote_count": 176,
		"id": 398818,
		"video": false,
		"vote_average": 8.4,
		"title": "Call Me by Your Name",
		"popularity": 174.235761,
		"poster_path": "\/tcNniniS4rfqrLH0oORikJfnIwY.jpg",
		"original_language": "en",
		"original_title": "Call Me by Your Name",
		"genre_ids": [10749, 18],
		"backdrop_path": "\/t5fV72V36klctujiMNKdY6tlcxG.jpg",
		"adult": false,
		"overview": "Elio Perlman is spending the summer with his family at their vacation home in Lombardy, Italy. When his father hires a handsome doctoral student, the curious 17-year-old finds himself developing a growing attraction to the young man.",
		"release_date": "2017-10-27"
	}, {
		"vote_count": 4418,
		"id": 129,
		"video": false,
		"vote_average": 8.4,
		"title": "Spirited Away",
		"popularity": 61.901988,
		"poster_path": "\/dL11DBPcRhWWnJcFXl9A07MrqTI.jpg",
		"original_language": "ja",
		"original_title": "千と千尋の神隠し",
		"genre_ids": [16, 10751, 14],
		"backdrop_path": "\/mnpRKVSXBX6jb56nabvmGKA0Wig.jpg",
		"adult": false,
		"overview": "A young girl, Chihiro, becomes trapped in a strange new world of spirits. When her parents undergo a mysterious transformation, she must call upon the courage she never knew she had to free her family.",
		"release_date": "2001-07-20"
	}, {
		"vote_count": 4909,
		"id": 424,
		"video": false,
		"vote_average": 8.4,
		"title": "Schindler's List",
		"popularity": 38.197232,
		"poster_path": "\/yPisjyLweCl1tbgwgtzBCNCBle.jpg",
		"original_language": "en",
		"original_title": "Schindler's List",
		"genre_ids": [18, 36, 10752],
		"backdrop_path": "\/rIpSszng8P0DL0TimSzZbpfnvh1.jpg",
		"adult": false,
		"overview": "The true story of how businessman Oskar Schindler saved over a thousand Jewish lives from the Nazis while they worked as slaves in his factory during World War II.",
		"release_date": "1993-11-29"
	}, {
		"vote_count": 179,
		"id": 339877,
		"video": false,
		"vote_average": 8.3,
		"title": "Loving Vincent",
		"popularity": 35.317745,
		"poster_path": "\/qlrhwUDe7YOZujAYanK6ij2vbY5.jpg",
		"original_language": "en",
		"original_title": "Loving Vincent",
		"genre_ids": [16, 18],
		"backdrop_path": "\/adFgBkl35kdI0bSrWZO2xury1JB.jpg",
		"adult": false,
		"overview": "The film brings the paintings of Vincent van Gogh to life to tell his remarkable story. Every one of the 65,000 frames of the film is an oil-painting hand-painted by 125 professional oil-painters who travelled from all across the world to the Loving Vincent studios in Poland and Greece to be a part of the production. As remarkable as Vincent’s brilliant paintings are his passionate and ill-fated life and mysterious death.",
		"release_date": "2017-09-22"
	}, {
		"vote_count": 3800,
		"id": 240,
		"video": false,
		"vote_average": 8.3,
		"title": "The Godfather: Part II",
		"popularity": 54.084624,
		"poster_path": "\/tHbMIIF51rguMNSastqoQwR0sBs.jpg",
		"original_language": "en",
		"original_title": "The Godfather: Part II",
		"genre_ids": [18, 80],
		"backdrop_path": "\/gLbBRyS7MBrmVUNce91Hmx9vzqI.jpg",
		"adult": false,
		"overview": "In the continuing saga of the Corleone crime family, a young Vito Corleone grows up in Sicily and in 1910s New York. In the 1950s, Michael Corleone attempts to expand the family business into Las Vegas, Hollywood and Cuba.",
		"release_date": "1974-12-20"
	}, {
		"vote_count": 4963,
		"id": 244786,
		"video": false,
		"vote_average": 8.3,
		"title": "Whiplash",
		"popularity": 54.900441,
		"poster_path": "\/lIv1QinFqz4dlp5U4lQ6HaiskOZ.jpg",
		"original_language": "en",
		"original_title": "Whiplash",
		"genre_ids": [18],
		"backdrop_path": "\/6bbZ6XyvgfjhQwbplnUh1LSj1ky.jpg",
		"adult": false,
		"overview": "Under the direction of a ruthless instructor, a talented young drummer begins to pursue perfection at any cost, even his humanity.",
		"release_date": "2014-10-10"
	}, {
		"vote_count": 254,
		"id": 455661,
		"video": false,
		"vote_average": 8.3,
		"title": "In a Heartbeat",
		"popularity": 25.817856,
		"poster_path": "\/wJUJROdLOtOzMixkjkx1aaZGSLl.jpg",
		"original_language": "en",
		"original_title": "In a Heartbeat",
		"genre_ids": [10751, 16, 10749, 35],
		"backdrop_path": "\/4datX8btikWEikf7esqEe6fhw.jpg",
		"adult": false,
		"overview": "A closeted boy runs the risk of being outed by his own heart after it pops out of his chest to chase down the boy of his dreams.",
		"release_date": "2017-06-01"
	}, {
		"vote_count": 160,
		"id": 391713,
		"video": false,
		"vote_average": 8.3,
		"title": "Lady Bird",
		"popularity": 49.58071,
		"poster_path": "\/iySFtKLrWvVzXzlFj7x1zalxi5G.jpg",
		"original_language": "en",
		"original_title": "Lady Bird",
		"genre_ids": [35, 18],
		"backdrop_path": "\/kQ3OXX5SgDPBi1wt83HX7VShQG8.jpg",
		"adult": false,
		"overview": "A California high school student plans to escape from her family and small town by going to college in New York.",
		"release_date": "2017-09-08"
	}, {
		"vote_count": 10807,
		"id": 550,
		"video": false,
		"vote_average": 8.3,
		"title": "Fight Club",
		"popularity": 62.573011,
		"poster_path": "\/adw6Lq9FiC9zjYEpOqfq03ituwp.jpg",
		"original_language": "en",
		"original_title": "Fight Club",
		"genre_ids": [18],
		"backdrop_path": "\/87hTDiay2N2qWyX4Ds7ybXi9h8I.jpg",
		"adult": false,
		"overview": "A ticking-time-bomb insomniac and a slippery soap salesman channel primal male aggression into a shocking new form of therapy. Their concept catches on, with underground \"fight clubs\" forming in every town, until an eccentric gets in the way and ignites an out-of-control spiral toward oblivion.",
		"release_date": "1999-10-15"
	}, {
		"vote_count": 9657,
		"id": 680,
		"video": false,
		"vote_average": 8.3,
		"title": "Pulp Fiction",
		"popularity": 64.839968,
		"poster_path": "\/dM2w364MScsjFf8pfMbaWUcWrR.jpg",
		"original_language": "en",
		"original_title": "Pulp Fiction",
		"genre_ids": [53, 80],
		"backdrop_path": "\/9rZg1J6vMQoDVSgRyWcpJa8IAGy.jpg",
		"adult": false,
		"overview": "A burger-loving hit man, his philosophical partner, a drug-addled gangster's moll and a washed-up boxer converge in this sprawling, comedic crime caper. Their adventures unfurl in three stories that ingeniously trip back and forth in time.",
		"release_date": "1994-09-10"
	}, {
		"vote_count": 2818,
		"id": 539,
		"video": false,
		"vote_average": 8.3,
		"title": "Psycho",
		"popularity": 43.378329,
		"poster_path": "\/81d8oyEFgj7FlxJqSDXWr8JH8kV.jpg",
		"original_language": "en",
		"original_title": "Psycho",
		"genre_ids": [18, 27, 53],
		"backdrop_path": "\/3md49VBCeqY6MSNyAVY6d5eC6bA.jpg",
		"adult": false,
		"overview": "When larcenous real estate clerk Marion Crane goes on the lam with a wad of cash and hopes of starting a new life, she ends up at the notorious Bates Motel, where manager Norman Bates cares for his housebound mother. The place seems quirky, but fine… until Marion decides to take a shower.",
		"release_date": "1960-06-16"
	}, {
		"vote_count": 352,
		"id": 374430,
		"video": false,
		"vote_average": 8.3,
		"title": "Black Mirror: White Christmas",
		"popularity": 24.66021,
		"poster_path": "\/he609rnU3tiwBjRklKNa4n2jQSd.jpg",
		"original_language": "en",
		"original_title": "Black Mirror: White Christmas",
		"genre_ids": [18, 9648, 878, 53, 10770],
		"backdrop_path": "\/rMCew7St2vy9iV3QOPzx15sAkFJ.jpg",
		"adult": false,
		"overview": "In a mysterious and remote snowy outpost, Matt and Potter share a Christmas meal, swapping creepy tales of their earlier lives in the outside world, but are both men who they appear to be?",
		"release_date": "2014-12-16"
	}, {
		"vote_count": 4155,
		"id": 637,
		"video": false,
		"vote_average": 8.3,
		"title": "Life Is Beautiful",
		"popularity": 44.361426,
		"poster_path": "\/f7DImXDebOs148U4uPjI61iDvaK.jpg",
		"original_language": "it",
		"original_title": "La vita è bella",
		"genre_ids": [35, 18],
		"backdrop_path": "\/bORe0eI72D874TMawOOFvqWS6Xe.jpg",
		"adult": false,
		"overview": "A touching story of an Italian book seller of Jewish ancestry who lives in his own little fairy tale. His creative and happy life would come to an abrupt halt when his entire family is deported to a concentration camp during World War II. While locked up he tries to convince his son that the whole thing is just a game.",
		"release_date": "1997-12-20"
	}, {
		"vote_count": 3378,
		"id": 510,
		"video": false,
		"vote_average": 8.3,
		"title": "One Flew Over the Cuckoo's Nest",
		"popularity": 39.230968,
		"poster_path": "\/2Sns5oMb356JNdBHgBETjIpRYy9.jpg",
		"original_language": "en",
		"original_title": "One Flew Over the Cuckoo's Nest",
		"genre_ids": [18],
		"backdrop_path": "\/4E7YQcwui0PfNXguf4V2X8YocPC.jpg",
		"adult": false,
		"overview": "While serving time for insanity at a state mental hospital, implacable rabble-rouser, Randle Patrick McMurphy inspires his fellow patients to rebel against the authoritarian rule of head nurse, Mildred Ratched.",
		"release_date": "1975-11-18"
	}]
}
